{
  "$schema": "http://json-schema.org/schema",
  "id": "NeoModule",
  "title": "Neo Module",
  "type": "object",
  "description": "Creates a module with structural comments",
  "properties": {
    "name": {
      "type": "string",
      "description": "The name of the service",
      "$default": {
        "$source": "argv",
        "index": 0
      },
      "x-prompt": "What's the modules name?"
    },
    "type": {
      "type": "string",
      "default": "",
      "$default": {
        "$source": "argv",
        "index": 1
      },
      "enum": ["", "core", "layout", "routes", "shared"]
    },
    "project": {
      "type": "string",
      "description": "Generate in specific Angular CLI workspace project"
    }
  },
  "required": ["name"]
}
