{
  "$schema": "http://json-schema.org/schema",
  "id": "NeoBase",
  "title": "Neo Base",
  "type": "object",
  "description": "Generates base application structure",
  "properties": {
    "project": {
      "type": "string",
      "description": "Generate in specific Angular CLI workspace project"
    }
  }
}
